Carico il pacchetto richiesto: permute
Carico il pacchetto richiesto: lattice
This is vegan 2.5-6

Attaching package: ‘plotly’

The following object is masked from ‘package:ggplot2’:

    last_plot

The following object is masked from ‘package:stats’:

    filter

The following object is masked from ‘package:graphics’:

    layout

Carico il pacchetto richiesto: S4Vectors
Carico il pacchetto richiesto: stats4
Carico il pacchetto richiesto: BiocGenerics
Carico il pacchetto richiesto: parallel

Attaching package: ‘BiocGenerics’

The following objects are masked from ‘package:parallel’:

    clusterApply, clusterApplyLB, clusterCall, clusterEvalQ,
    clusterExport, clusterMap, parApply, parCapply, parLapply,
    parLapplyLB, parRapply, parSapply, parSapplyLB

The following objects are masked from ‘package:stats’:

    IQR, mad, sd, var, xtabs

The following objects are masked from ‘package:base’:

    anyDuplicated, append, as.data.frame, basename, cbind, colMeans,
    colnames, colSums, dirname, do.call, duplicated, eval, evalq,
    Filter, Find, get, grep, grepl, intersect, is.unsorted, lapply,
    lengths, Map, mapply, match, mget, order, paste, pmax, pmax.int,
    pmin, pmin.int, Position, rank, rbind, Reduce, rowMeans, rownames,
    rowSums, sapply, setdiff, sort, table, tapply, union, unique,
    unsplit, which, which.max, which.min


Attaching package: ‘S4Vectors’

The following object is masked from ‘package:plotly’:

    rename

The following object is masked from ‘package:base’:

    expand.grid

Carico il pacchetto richiesto: IRanges

Attaching package: ‘IRanges’

The following object is masked from ‘package:plotly’:

    slice

Carico il pacchetto richiesto: GenomicRanges
Carico il pacchetto richiesto: GenomeInfoDb
Carico il pacchetto richiesto: SummarizedExperiment
Carico il pacchetto richiesto: Biobase
Welcome to Bioconductor

    Vignettes contain introductory material; view with
    'browseVignettes()'. To cite Bioconductor, see
    'citation("Biobase")', and for packages 'citation("pkgname")'.

Carico il pacchetto richiesto: DelayedArray
Carico il pacchetto richiesto: matrixStats

Attaching package: ‘matrixStats’

The following objects are masked from ‘package:Biobase’:

    anyMissing, rowMedians

Carico il pacchetto richiesto: BiocParallel

Attaching package: ‘DelayedArray’

The following objects are masked from ‘package:matrixStats’:

    colMaxs, colMins, colRanges, rowMaxs, rowMins, rowRanges

The following objects are masked from ‘package:base’:

    aperm, apply


Attaching package: ‘phyloseq’

The following object is masked from ‘package:SummarizedExperiment’:

    distance

The following object is masked from ‘package:Biobase’:

    sampleNames

The following object is masked from ‘package:GenomicRanges’:

    distance

The following object is masked from ‘package:IRanges’:

    distance


Attaching package: ‘plyr’

The following object is masked from ‘package:matrixStats’:

    count

The following object is masked from ‘package:IRanges’:

    desc

The following object is masked from ‘package:S4Vectors’:

    rename

The following objects are masked from ‘package:plotly’:

    arrange, mutate, rename, summarise


Attaching package: ‘dplyr’

The following objects are masked from ‘package:plyr’:

    arrange, count, desc, failwith, id, mutate, rename, summarise,
    summarize

The following object is masked from ‘package:matrixStats’:

    count

The following object is masked from ‘package:Biobase’:

    combine

The following objects are masked from ‘package:GenomicRanges’:

    intersect, setdiff, union

The following object is masked from ‘package:GenomeInfoDb’:

    intersect

The following objects are masked from ‘package:IRanges’:

    collapse, desc, intersect, setdiff, slice, union

The following objects are masked from ‘package:S4Vectors’:

    first, intersect, rename, setdiff, setequal, union

The following objects are masked from ‘package:BiocGenerics’:

    combine, intersect, setdiff, union

The following objects are masked from ‘package:stats’:

    filter, lag

The following objects are masked from ‘package:base’:

    intersect, setdiff, setequal, union

Carico il pacchetto richiesto: magrittr

Attaching package: ‘ggpubr’

The following object is masked from ‘package:plyr’:

    mutate

hash-2.2.6.1 provided by Decision Patterns


Attaching package: ‘hash’

The following objects are masked from ‘package:SummarizedExperiment’:

    values, values<-

The following objects are masked from ‘package:GenomicRanges’:

    values, values<-

The following objects are masked from ‘package:IRanges’:

    values, values<-

The following objects are masked from ‘package:S4Vectors’:

    values, values<-

Warning message:
Expected 7 pieces. Missing pieces filled with `NA` in 6755 rows [1, 2, 3, 4, 5, 6, 7, 8, 9, 10, 11, 12, 13, 14, 15, 16, 17, 18, 19, 20, ...]. 
converting counts to integer mode
converting counts to integer mode
converting counts to integer mode
converting counts to integer mode
converting counts to integer mode
converting counts to integer mode
There were 24 warnings (use warnings() to see them)
Error in write.table(as.data.frame(sample_data(phy)), file = file.csv,  : 
  oggetto "file.csv" non trovato
Calls: write.csv -> eval.parent -> eval -> eval -> write.table
Esecuzione interrotta
