giu-25 18:11:04.165 [main] DEBUG nextflow.cli.Launcher - $> nextflow run beta_test.nf
giu-25 18:11:04.427 [main] INFO  nextflow.cli.CmdRun - N E X T F L O W  ~  version 20.04.1
giu-25 18:11:04.442 [main] INFO  nextflow.cli.CmdRun - Launching `beta_test.nf` [tiny_celsius] - revision: 76f0ccf5ab
giu-25 18:11:04.470 [main] DEBUG nextflow.config.ConfigBuilder - Found config local: /home/adelaide/adelaide/Dottorato/Nextflow/met_pipeline/nextflow.config
giu-25 18:11:04.472 [main] DEBUG nextflow.config.ConfigBuilder - Parsing config file: /home/adelaide/adelaide/Dottorato/Nextflow/met_pipeline/nextflow.config
giu-25 18:11:04.515 [main] DEBUG nextflow.config.ConfigBuilder - Applying config profile: `standard`
giu-25 18:11:05.261 [main] DEBUG nextflow.Session - Session uuid: cad732aa-bd53-46b2-a773-c91b56e08ed5
giu-25 18:11:05.261 [main] DEBUG nextflow.Session - Run name: tiny_celsius
giu-25 18:11:05.263 [main] DEBUG nextflow.Session - Executor pool size: 4
giu-25 18:11:05.460 [main] DEBUG nextflow.cli.CmdRun - 
  Version: 20.04.1 build 5335
  Created: 03-05-2020 19:37 UTC (21:37 CEST)
  System: Linux 4.19.91-1-MANJARO
  Runtime: Groovy 2.5.8 on OpenJDK 64-Bit Server VM 1.8.0_152-release-1056-b12
  Encoding: UTF-8 (UTF-8)
  Process: 5192@adelaide-pc [127.0.1.1]
  CPUs: 4 - Mem: 3.7 GB (1.1 GB) - Swap: 8.2 GB (5 GB)
giu-25 18:11:05.505 [main] DEBUG nextflow.Session - Work-dir: /home/adelaide/adelaide/Dottorato/Nextflow/met_pipeline/work [ext2/ext3]
giu-25 18:11:05.556 [main] DEBUG nextflow.Session - Observer factory: TowerFactory
giu-25 18:11:05.560 [main] DEBUG nextflow.Session - Observer factory: DefaultObserverFactory
giu-25 18:11:05.932 [main] DEBUG nextflow.Session - Session start invoked
giu-25 18:11:06.256 [main] DEBUG nextflow.script.ScriptRunner - > Launching execution
giu-25 18:11:06.272 [main] DEBUG nextflow.Session - Workflow process names [dsl1]: beta_diversity
giu-25 18:11:06.466 [main] WARN  nextflow.extension.IntoOp - The `into` operator should be used to connect two or more target channels -- consider to replace it with `.set { ch_table_qza_beta }`
giu-25 18:11:06.496 [main] WARN  nextflow.extension.IntoOp - The `into` operator should be used to connect two or more target channels -- consider to replace it with `.set { ch_classification_beta }`
giu-25 18:11:06.503 [main] WARN  nextflow.extension.IntoOp - The `into` operator should be used to connect two or more target channels -- consider to replace it with `.set { ch_rooted_beta }`
giu-25 18:11:06.624 [main] DEBUG nextflow.executor.ExecutorFactory - << taskConfig executor: null
giu-25 18:11:06.624 [main] DEBUG nextflow.executor.ExecutorFactory - >> processorType: 'local'
giu-25 18:11:06.634 [main] DEBUG nextflow.executor.Executor - [warm up] executor > local
giu-25 18:11:06.642 [main] DEBUG n.processor.LocalPollingMonitor - Creating local task monitor for executor 'local' > cpus=4; memory=3.7 GB; capacity=4; pollInterval=100ms; dumpInterval=5m
giu-25 18:11:06.789 [main] DEBUG nextflow.script.ScriptRunner - > Await termination 
giu-25 18:11:06.789 [main] DEBUG nextflow.Session - Session await
giu-25 18:11:06.921 [Actor Thread 4] DEBUG nextflow.conda.CondaCache - Conda found local env for environment=/home/adelaide/anaconda3/envs/metaRJupy; path=/home/adelaide/anaconda3/envs/metaRJupy
giu-25 18:11:07.055 [Task submitter] DEBUG nextflow.executor.LocalTaskHandler - Launch cmd line: /bin/bash -ue .command.run
giu-25 18:11:07.062 [Task submitter] INFO  nextflow.Session - [0e/5b1f07] Submitted process > beta_diversity (1)
giu-25 18:16:07.543 [Task monitor] DEBUG n.processor.TaskPollingMonitor - !! executor local > tasks to be completed: 1 -- submitted tasks are shown below
~> TaskHandler[id: 1; name: beta_diversity (1); status: RUNNING; exit: -; error: -; workDir: /home/adelaide/adelaide/Dottorato/Nextflow/met_pipeline/work/0e/5b1f0770502d088ae1adc9b3cf4b13]
giu-25 18:17:11.411 [Task monitor] DEBUG n.processor.TaskPollingMonitor - Task completed > TaskHandler[id: 1; name: beta_diversity (1); status: COMPLETED; exit: 0; error: -; workDir: /home/adelaide/adelaide/Dottorato/Nextflow/met_pipeline/work/0e/5b1f0770502d088ae1adc9b3cf4b13]
giu-25 18:17:11.538 [main] DEBUG nextflow.Session - Session await > all process finished
giu-25 18:17:11.583 [main] DEBUG nextflow.Session - Session await > all barriers passed
giu-25 18:17:11.912 [main] DEBUG nextflow.trace.WorkflowStatsObserver - Workflow completed > WorkflowStats[succeededCount=1; failedCount=0; ignoredCount=0; cachedCount=0; pendingCount=0; submittedCount=0; runningCount=0; retriesCount=0; abortedCount=0; succeedDuration=6m 4s; failedDuration=0ms; cachedDuration=0ms;loadCpus=0; loadMemory=0; peakRunning=1; peakCpus=1; peakMemory=0; ]
giu-25 18:17:12.490 [main] DEBUG nextflow.CacheDB - Closing CacheDB done
giu-25 18:17:12.744 [main] DEBUG nextflow.script.ScriptRunner - > Execution complete -- Goodbye
