giu-25 17:22:20.185 [main] DEBUG nextflow.cli.Launcher - $> nextflow run test.nf
giu-25 17:22:20.432 [main] INFO  nextflow.cli.CmdRun - N E X T F L O W  ~  version 20.04.1
giu-25 17:22:20.457 [main] INFO  nextflow.cli.CmdRun - Launching `test.nf` [irreverent_dijkstra] - revision: 680d9fc5fe
giu-25 17:22:20.503 [main] DEBUG nextflow.config.ConfigBuilder - Found config local: /home/adelaide/adelaide/Dottorato/Nextflow/met_pipeline/nextflow.config
giu-25 17:22:20.504 [main] DEBUG nextflow.config.ConfigBuilder - Parsing config file: /home/adelaide/adelaide/Dottorato/Nextflow/met_pipeline/nextflow.config
giu-25 17:22:20.547 [main] DEBUG nextflow.config.ConfigBuilder - Applying config profile: `standard`
giu-25 17:22:21.505 [main] DEBUG nextflow.Session - Session uuid: 55e31093-b03e-4eed-902e-b1eefc2870a7
giu-25 17:22:21.505 [main] DEBUG nextflow.Session - Run name: irreverent_dijkstra
giu-25 17:22:21.506 [main] DEBUG nextflow.Session - Executor pool size: 4
giu-25 17:22:21.666 [main] DEBUG nextflow.cli.CmdRun - 
  Version: 20.04.1 build 5335
  Created: 03-05-2020 19:37 UTC (21:37 CEST)
  System: Linux 4.19.91-1-MANJARO
  Runtime: Groovy 2.5.8 on OpenJDK 64-Bit Server VM 1.8.0_152-release-1056-b12
  Encoding: UTF-8 (UTF-8)
  Process: 1455@adelaide-pc [127.0.1.1]
  CPUs: 4 - Mem: 3.7 GB (917.6 MB) - Swap: 8.2 GB (5.1 GB)
giu-25 17:22:21.710 [main] DEBUG nextflow.Session - Work-dir: /home/adelaide/adelaide/Dottorato/Nextflow/met_pipeline/work [ext2/ext3]
giu-25 17:22:21.759 [main] DEBUG nextflow.Session - Observer factory: TowerFactory
giu-25 17:22:21.762 [main] DEBUG nextflow.Session - Observer factory: DefaultObserverFactory
giu-25 17:22:22.175 [main] DEBUG nextflow.Session - Session start invoked
giu-25 17:22:22.501 [main] DEBUG nextflow.script.ScriptRunner - > Launching execution
giu-25 17:22:22.518 [main] DEBUG nextflow.Session - Workflow process names [dsl1]: beta_diversity
giu-25 17:22:22.724 [main] WARN  nextflow.extension.IntoOp - The `into` operator should be used to connect two or more target channels -- consider to replace it with `.set { ch_table_qza_beta }`
giu-25 17:22:22.735 [main] WARN  nextflow.extension.IntoOp - The `into` operator should be used to connect two or more target channels -- consider to replace it with `.set { ch_classification_beta }`
giu-25 17:22:22.740 [main] WARN  nextflow.extension.IntoOp - The `into` operator should be used to connect two or more target channels -- consider to replace it with `.set { ch_rooted_beta }`
giu-25 17:22:22.896 [main] DEBUG nextflow.executor.ExecutorFactory - << taskConfig executor: null
giu-25 17:22:22.897 [main] DEBUG nextflow.executor.ExecutorFactory - >> processorType: 'local'
giu-25 17:22:22.907 [main] DEBUG nextflow.executor.Executor - [warm up] executor > local
giu-25 17:22:22.916 [main] DEBUG n.processor.LocalPollingMonitor - Creating local task monitor for executor 'local' > cpus=4; memory=3.7 GB; capacity=4; pollInterval=100ms; dumpInterval=5m
giu-25 17:22:23.109 [main] DEBUG nextflow.script.ScriptRunner - > Await termination 
giu-25 17:22:23.109 [main] DEBUG nextflow.Session - Session await
giu-25 17:22:23.406 [Actor Thread 1] DEBUG nextflow.conda.CondaCache - Conda found local env for environment=/home/adelaide/anaconda3/envs/metaRJupy; path=/home/adelaide/anaconda3/envs/metaRJupy
giu-25 17:22:23.535 [Task submitter] DEBUG nextflow.executor.LocalTaskHandler - Launch cmd line: /bin/bash -ue .command.run
giu-25 17:22:23.542 [Task submitter] INFO  nextflow.Session - [1f/d18984] Submitted process > beta_diversity (1)
giu-25 17:27:23.557 [Task monitor] DEBUG n.processor.TaskPollingMonitor - !! executor local > tasks to be completed: 1 -- submitted tasks are shown below
~> TaskHandler[id: 1; name: beta_diversity (1); status: RUNNING; exit: -; error: -; workDir: /home/adelaide/adelaide/Dottorato/Nextflow/met_pipeline/work/1f/d18984a57b2b19a7cb7cc26baa9036]
giu-25 17:27:34.348 [SIGINT handler] DEBUG nextflow.Session - Session aborted -- Cause: SIGINT
giu-25 17:27:34.708 [main] DEBUG nextflow.Session - Session await > all process finished
giu-25 17:27:34.709 [main] DEBUG nextflow.Session - Session await > all barriers passed
giu-25 17:27:34.878 [main] WARN  n.processor.TaskPollingMonitor - Killing pending tasks (1)
giu-25 17:27:34.923 [SIGINT handler] INFO  nextflow.Session - Adieu
giu-25 17:27:34.948 [SIGINT handler] INFO  nextflow.Session - Adieu
giu-25 17:27:35.221 [SIGINT handler] INFO  nextflow.Session - Adieu
giu-25 17:27:35.544 [main] DEBUG nextflow.executor.LocalTaskHandler - Unable to kill beta_diversity (1) -- command: kill -TERM 1527; exit: 130 
giu-25 17:27:35.568 [main] DEBUG nextflow.trace.WorkflowStatsObserver - Workflow completed > WorkflowStats[succeededCount=0; failedCount=0; ignoredCount=0; cachedCount=0; pendingCount=0; submittedCount=0; runningCount=0; retriesCount=0; abortedCount=1; succeedDuration=0ms; failedDuration=0ms; cachedDuration=0ms;loadCpus=0; loadMemory=0; peakRunning=1; peakCpus=1; peakMemory=0; ]
