giu-25 18:09:51.724 [main] DEBUG nextflow.cli.Launcher - $> nextflow run beta_test.nf
giu-25 18:09:52.273 [main] INFO  nextflow.cli.CmdRun - N E X T F L O W  ~  version 20.04.1
giu-25 18:09:52.387 [main] INFO  nextflow.cli.CmdRun - Launching `beta_test.nf` [evil_morse] - revision: b8adf627f6
giu-25 18:09:52.457 [main] DEBUG nextflow.config.ConfigBuilder - Found config local: /home/adelaide/adelaide/Dottorato/Nextflow/met_pipeline/nextflow.config
giu-25 18:09:52.459 [main] DEBUG nextflow.config.ConfigBuilder - Parsing config file: /home/adelaide/adelaide/Dottorato/Nextflow/met_pipeline/nextflow.config
giu-25 18:09:52.545 [main] DEBUG nextflow.config.ConfigBuilder - Applying config profile: `standard`
giu-25 18:09:53.800 [main] DEBUG nextflow.Session - Session uuid: 62b35fee-e1be-4ce7-b713-f1ac409ca691
giu-25 18:09:53.800 [main] DEBUG nextflow.Session - Run name: evil_morse
giu-25 18:09:53.801 [main] DEBUG nextflow.Session - Executor pool size: 4
giu-25 18:09:54.094 [main] DEBUG nextflow.cli.CmdRun - 
  Version: 20.04.1 build 5335
  Created: 03-05-2020 19:37 UTC (21:37 CEST)
  System: Linux 4.19.91-1-MANJARO
  Runtime: Groovy 2.5.8 on OpenJDK 64-Bit Server VM 1.8.0_152-release-1056-b12
  Encoding: UTF-8 (UTF-8)
  Process: 5094@adelaide-pc [127.0.1.1]
  CPUs: 4 - Mem: 3.7 GB (1.2 GB) - Swap: 8.2 GB (5 GB)
giu-25 18:09:54.212 [main] DEBUG nextflow.Session - Work-dir: /home/adelaide/adelaide/Dottorato/Nextflow/met_pipeline/work [ext2/ext3]
giu-25 18:09:54.349 [main] DEBUG nextflow.Session - Observer factory: TowerFactory
giu-25 18:09:54.352 [main] DEBUG nextflow.Session - Observer factory: DefaultObserverFactory
giu-25 18:09:55.071 [main] DEBUG nextflow.Session - Session start invoked
giu-25 18:09:55.422 [main] DEBUG nextflow.script.ScriptRunner - > Launching execution
giu-25 18:09:55.439 [main] DEBUG nextflow.Session - Workflow process names [dsl1]: beta_diversity
giu-25 18:09:55.651 [main] WARN  nextflow.extension.IntoOp - The `into` operator should be used to connect two or more target channels -- consider to replace it with `.set { ch_table_qza_beta }`
giu-25 18:09:55.666 [main] WARN  nextflow.extension.IntoOp - The `into` operator should be used to connect two or more target channels -- consider to replace it with `.set { ch_classification_beta }`
giu-25 18:09:55.673 [main] WARN  nextflow.extension.IntoOp - The `into` operator should be used to connect two or more target channels -- consider to replace it with `.set { ch_rooted_beta }`
giu-25 18:09:55.791 [main] DEBUG nextflow.executor.ExecutorFactory - << taskConfig executor: null
giu-25 18:09:55.791 [main] DEBUG nextflow.executor.ExecutorFactory - >> processorType: 'local'
giu-25 18:09:55.800 [main] DEBUG nextflow.executor.Executor - [warm up] executor > local
giu-25 18:09:55.808 [main] DEBUG n.processor.LocalPollingMonitor - Creating local task monitor for executor 'local' > cpus=4; memory=3.7 GB; capacity=4; pollInterval=100ms; dumpInterval=5m
giu-25 18:09:55.954 [main] DEBUG nextflow.script.ScriptRunner - > Await termination 
giu-25 18:09:55.958 [main] DEBUG nextflow.Session - Session await
giu-25 18:09:56.174 [Actor Thread 1] ERROR nextflow.processor.TaskProcessor - Error executing process > 'beta_diversity (1)'

Caused by:
  Unknown variable 'baseDi' -- Make sure it is not misspelt and defined somewhere in the script before using it

Source block:
  """
  	mkdir $baseDi/Immagini
  	beta_diversity.R ${dada2_data_table} ${mapping} ${rooted_tree} ${taxonomy_classification_data} "IBD"
  	
  	"""

Tip: you can replicate the issue by changing to the process work dir and entering the command `bash .command.run`
giu-25 18:09:56.224 [Actor Thread 1] DEBUG nextflow.Session - Session aborted -- Cause: Process `null` script contains error(s)
giu-25 18:09:56.264 [Actor Thread 1] DEBUG nextflow.Session - The following nodes are still active:
[process] beta_diversity
  status=ACTIVE
  port 0: (queue) closed; channel: -
  port 1: (cntrl) -     ; channel: $

giu-25 18:09:56.268 [main] DEBUG nextflow.Session - Session await > all process finished
giu-25 18:09:56.268 [main] DEBUG nextflow.Session - Session await > all barriers passed
giu-25 18:09:56.285 [main] DEBUG nextflow.trace.WorkflowStatsObserver - Workflow completed > WorkflowStats[succeededCount=0; failedCount=0; ignoredCount=0; cachedCount=0; pendingCount=0; submittedCount=0; runningCount=0; retriesCount=0; abortedCount=0; succeedDuration=0ms; failedDuration=0ms; cachedDuration=0ms;loadCpus=0; loadMemory=0; peakRunning=0; peakCpus=0; peakMemory=0; ]
giu-25 18:09:56.460 [main] DEBUG nextflow.CacheDB - Closing CacheDB done
giu-25 18:09:56.490 [main] DEBUG nextflow.script.ScriptRunner - > Execution complete -- Goodbye
