giu-25 18:03:50.568 [main] DEBUG nextflow.cli.Launcher - $> nextflow run beta_test.nf
giu-25 18:03:51.044 [main] INFO  nextflow.cli.CmdRun - N E X T F L O W  ~  version 20.04.1
giu-25 18:03:51.217 [main] INFO  nextflow.cli.CmdRun - Launching `beta_test.nf` [mighty_visvesvaraya] - revision: c8fe41fc93
giu-25 18:03:51.298 [main] DEBUG nextflow.config.ConfigBuilder - Found config local: /home/adelaide/adelaide/Dottorato/Nextflow/met_pipeline/nextflow.config
giu-25 18:03:51.299 [main] DEBUG nextflow.config.ConfigBuilder - Parsing config file: /home/adelaide/adelaide/Dottorato/Nextflow/met_pipeline/nextflow.config
giu-25 18:03:51.395 [main] DEBUG nextflow.config.ConfigBuilder - Applying config profile: `standard`
giu-25 18:03:52.637 [main] DEBUG nextflow.Session - Session uuid: 28d4fa6c-aa72-40aa-b960-c747157aadc0
giu-25 18:03:52.637 [main] DEBUG nextflow.Session - Run name: mighty_visvesvaraya
giu-25 18:03:52.638 [main] DEBUG nextflow.Session - Executor pool size: 4
giu-25 18:03:52.904 [main] DEBUG nextflow.cli.CmdRun - 
  Version: 20.04.1 build 5335
  Created: 03-05-2020 19:37 UTC (21:37 CEST)
  System: Linux 4.19.91-1-MANJARO
  Runtime: Groovy 2.5.8 on OpenJDK 64-Bit Server VM 1.8.0_152-release-1056-b12
  Encoding: UTF-8 (UTF-8)
  Process: 4305@adelaide-pc [127.0.1.1]
  CPUs: 4 - Mem: 3.7 GB (1 GB) - Swap: 8.2 GB (5 GB)
giu-25 18:03:53.017 [main] DEBUG nextflow.Session - Work-dir: /home/adelaide/adelaide/Dottorato/Nextflow/met_pipeline/work [ext2/ext3]
giu-25 18:03:53.123 [main] DEBUG nextflow.Session - Observer factory: TowerFactory
giu-25 18:03:53.126 [main] DEBUG nextflow.Session - Observer factory: DefaultObserverFactory
giu-25 18:03:53.916 [main] DEBUG nextflow.Session - Session start invoked
giu-25 18:03:54.327 [main] DEBUG nextflow.script.ScriptRunner - > Launching execution
giu-25 18:03:54.341 [main] DEBUG nextflow.Session - Workflow process names [dsl1]: beta_diversity
giu-25 18:03:54.628 [main] WARN  nextflow.extension.IntoOp - The `into` operator should be used to connect two or more target channels -- consider to replace it with `.set { ch_table_qza_beta }`
giu-25 18:03:54.648 [main] WARN  nextflow.extension.IntoOp - The `into` operator should be used to connect two or more target channels -- consider to replace it with `.set { ch_classification_beta }`
giu-25 18:03:54.656 [main] WARN  nextflow.extension.IntoOp - The `into` operator should be used to connect two or more target channels -- consider to replace it with `.set { ch_rooted_beta }`
giu-25 18:03:54.769 [main] DEBUG nextflow.executor.ExecutorFactory - << taskConfig executor: null
giu-25 18:03:54.770 [main] DEBUG nextflow.executor.ExecutorFactory - >> processorType: 'local'
giu-25 18:03:54.780 [main] DEBUG nextflow.executor.Executor - [warm up] executor > local
giu-25 18:03:54.798 [main] DEBUG n.processor.LocalPollingMonitor - Creating local task monitor for executor 'local' > cpus=4; memory=3.7 GB; capacity=4; pollInterval=100ms; dumpInterval=5m
giu-25 18:03:54.991 [main] DEBUG nextflow.script.ScriptRunner - > Await termination 
giu-25 18:03:54.992 [main] DEBUG nextflow.Session - Session await
giu-25 18:03:55.391 [Actor Thread 4] DEBUG nextflow.conda.CondaCache - Conda found local env for environment=/home/adelaide/anaconda3/envs/metaRJupy; path=/home/adelaide/anaconda3/envs/metaRJupy
giu-25 18:03:55.538 [Task submitter] DEBUG nextflow.executor.LocalTaskHandler - Launch cmd line: /bin/bash -ue .command.run
giu-25 18:03:55.545 [Task submitter] INFO  nextflow.Session - [67/7dbd4e] Submitted process > beta_diversity (1)
giu-25 18:08:47.688 [SIGINT handler] DEBUG nextflow.Session - Session aborted -- Cause: SIGINT
giu-25 18:08:47.975 [main] DEBUG nextflow.Session - Session await > all process finished
giu-25 18:08:47.976 [main] DEBUG nextflow.Session - Session await > all barriers passed
giu-25 18:08:48.143 [main] WARN  n.processor.TaskPollingMonitor - Killing pending tasks (1)
giu-25 18:08:48.236 [SIGINT handler] INFO  nextflow.Session - Adieu
giu-25 18:08:48.285 [SIGINT handler] INFO  nextflow.Session - Adieu
giu-25 18:08:48.426 [SIGINT handler] INFO  nextflow.Session - Adieu
giu-25 18:08:48.426 [main] DEBUG nextflow.executor.LocalTaskHandler - Unable to kill beta_diversity (1) -- command: kill -TERM 4389; exit: 130 
giu-25 18:08:48.476 [main] DEBUG nextflow.trace.WorkflowStatsObserver - Workflow completed > WorkflowStats[succeededCount=0; failedCount=0; ignoredCount=0; cachedCount=0; pendingCount=0; submittedCount=0; runningCount=0; retriesCount=0; abortedCount=1; succeedDuration=0ms; failedDuration=0ms; cachedDuration=0ms;loadCpus=0; loadMemory=0; peakRunning=1; peakCpus=1; peakMemory=0; ]
