giu-25 17:47:27.861 [main] DEBUG nextflow.cli.Launcher - $> nextflow run test.nf
giu-25 17:47:28.533 [main] INFO  nextflow.cli.CmdRun - N E X T F L O W  ~  version 20.04.1
giu-25 17:47:28.669 [main] DEBUG nextflow.cli.Launcher - Operation aborted
nextflow.exception.AbortOperationException: Not a valid project name: test.nf
	at nextflow.scm.AssetManager.resolveName(AssetManager.groovy:246)
	at nextflow.scm.AssetManager.build(AssetManager.groovy:121)
	at nextflow.scm.AssetManager.<init>(AssetManager.groovy:105)
	at nextflow.cli.CmdRun.getScriptFile(CmdRun.groovy:331)
	at nextflow.cli.CmdRun.run(CmdRun.groovy:245)
	at nextflow.cli.Launcher.run(Launcher.groovy:460)
	at nextflow.cli.Launcher.main(Launcher.groovy:642)
