giu-25 17:30:11.740 [main] DEBUG nextflow.cli.Launcher - $> nextflow run test.nf
giu-25 17:30:12.521 [main] INFO  nextflow.cli.CmdRun - N E X T F L O W  ~  version 20.04.1
giu-25 17:30:12.607 [main] INFO  nextflow.cli.CmdRun - Launching `test.nf` [jolly_edison] - revision: 680d9fc5fe
giu-25 17:30:12.728 [main] DEBUG nextflow.config.ConfigBuilder - Found config local: /home/adelaide/adelaide/Dottorato/Nextflow/met_pipeline/nextflow.config
giu-25 17:30:12.729 [main] DEBUG nextflow.config.ConfigBuilder - Parsing config file: /home/adelaide/adelaide/Dottorato/Nextflow/met_pipeline/nextflow.config
giu-25 17:30:12.814 [main] DEBUG nextflow.config.ConfigBuilder - Applying config profile: `standard`
giu-25 17:30:14.115 [main] DEBUG nextflow.Session - Session uuid: 1087ec3e-7692-46a7-955d-296c58865516
giu-25 17:30:14.115 [main] DEBUG nextflow.Session - Run name: jolly_edison
giu-25 17:30:14.118 [main] DEBUG nextflow.Session - Executor pool size: 4
giu-25 17:30:14.403 [main] DEBUG nextflow.cli.CmdRun - 
  Version: 20.04.1 build 5335
  Created: 03-05-2020 19:37 UTC (21:37 CEST)
  System: Linux 4.19.91-1-MANJARO
  Runtime: Groovy 2.5.8 on OpenJDK 64-Bit Server VM 1.8.0_152-release-1056-b12
  Encoding: UTF-8 (UTF-8)
  Process: 2275@adelaide-pc [127.0.1.1]
  CPUs: 4 - Mem: 3.7 GB (1.1 GB) - Swap: 8.2 GB (5 GB)
giu-25 17:30:14.516 [main] DEBUG nextflow.Session - Work-dir: /home/adelaide/adelaide/Dottorato/Nextflow/met_pipeline/work [ext2/ext3]
giu-25 17:30:14.597 [main] DEBUG nextflow.Session - Observer factory: TowerFactory
giu-25 17:30:14.599 [main] DEBUG nextflow.Session - Observer factory: DefaultObserverFactory
giu-25 17:30:15.255 [main] DEBUG nextflow.Session - Session start invoked
giu-25 17:30:15.709 [main] DEBUG nextflow.script.ScriptRunner - > Launching execution
giu-25 17:30:15.736 [main] DEBUG nextflow.Session - Workflow process names [dsl1]: beta_diversity
giu-25 17:30:15.997 [main] WARN  nextflow.extension.IntoOp - The `into` operator should be used to connect two or more target channels -- consider to replace it with `.set { ch_table_qza_beta }`
giu-25 17:30:16.008 [main] WARN  nextflow.extension.IntoOp - The `into` operator should be used to connect two or more target channels -- consider to replace it with `.set { ch_classification_beta }`
giu-25 17:30:16.028 [main] WARN  nextflow.extension.IntoOp - The `into` operator should be used to connect two or more target channels -- consider to replace it with `.set { ch_rooted_beta }`
giu-25 17:30:16.189 [main] DEBUG nextflow.executor.ExecutorFactory - << taskConfig executor: null
giu-25 17:30:16.189 [main] DEBUG nextflow.executor.ExecutorFactory - >> processorType: 'local'
giu-25 17:30:16.199 [main] DEBUG nextflow.executor.Executor - [warm up] executor > local
giu-25 17:30:16.217 [main] DEBUG n.processor.LocalPollingMonitor - Creating local task monitor for executor 'local' > cpus=4; memory=3.7 GB; capacity=4; pollInterval=100ms; dumpInterval=5m
giu-25 17:30:16.384 [main] DEBUG nextflow.script.ScriptRunner - > Await termination 
giu-25 17:30:16.386 [main] DEBUG nextflow.Session - Session await
giu-25 17:30:16.738 [Actor Thread 4] DEBUG nextflow.conda.CondaCache - Conda found local env for environment=/home/adelaide/anaconda3/envs/metaRJupy; path=/home/adelaide/anaconda3/envs/metaRJupy
giu-25 17:30:16.882 [Task submitter] DEBUG nextflow.executor.LocalTaskHandler - Launch cmd line: /bin/bash -ue .command.run
giu-25 17:30:16.890 [Task submitter] INFO  nextflow.Session - [e8/5dfb7b] Submitted process > beta_diversity (1)
giu-25 17:35:16.737 [Task monitor] DEBUG n.processor.TaskPollingMonitor - !! executor local > tasks to be completed: 1 -- submitted tasks are shown below
~> TaskHandler[id: 1; name: beta_diversity (1); status: RUNNING; exit: -; error: -; workDir: /home/adelaide/adelaide/Dottorato/Nextflow/met_pipeline/work/e8/5dfb7b4e4f66ddc1b12820d52bc1ee]
giu-25 17:36:11.556 [Task monitor] DEBUG n.processor.TaskPollingMonitor - Task completed > TaskHandler[id: 1; name: beta_diversity (1); status: COMPLETED; exit: 1; error: -; workDir: /home/adelaide/adelaide/Dottorato/Nextflow/met_pipeline/work/e8/5dfb7b4e4f66ddc1b12820d52bc1ee]
giu-25 17:36:11.947 [Task monitor] ERROR nextflow.processor.TaskProcessor - Error executing process > 'beta_diversity (1)'

Caused by:
  Process `beta_diversity (1)` terminated with an error exit status (1)

Command executed:

  beta_diversity.R dada2_gastrodata_table.qza mapping.txt rooted_tree.qza taxonomy_classification_data_sklearn.qza "IBD"

Command exit status:
  1

Command output:
  Residual 98 4,6530760 0,94621835       NA     NA
  Total    99 4,9175499 1,00000000       NA     NA
           Df SumOfSqs         R2        F Pr(>F)
  IBD       1  1,08418 0,03187281 3,226369  1e-04
  Residual 98 32,93166 0,96812719       NA     NA
  Total    99 34,01584 1,00000000       NA     NA
           Df  SumOfSqs         R2        F Pr(>F)
  IBD       1   9393301 0,03432132 3,483031 0,0083
  Residual 98 264293777 0,96567868       NA     NA
  Total    99 273687078 1,00000000       NA     NA
           Df   SumOfSqs         R2        F Pr(>F)
  IBD       1  0,9364203 0,06383753 6,341731  1e-04
  Residual 93 13,7323852 0,93616247       NA     NA
  Total    94 14,6688056 1,00000000       NA     NA
           Df  SumOfSqs       R2        F Pr(>F)
  IBD       1  1,530476 0,108593 11,32945  1e-04
  Residual 93 12,563216 0,891407       NA     NA
  Total    94 14,093692 1,000000       NA     NA
           Df  SumOfSqs         R2       F Pr(>F)
  IBD       1 0,3982002 0,08117103 8,21579  1e-04
  Residual 93 4,5074940 0,91882897      NA     NA
  Total    94 4,9056942 1,00000000      NA     NA
           Df SumOfSqs         R2        F Pr(>F)
  IBD       1  1,75401 0,06119102 6,061686  1e-04
  Residual 93 26,91050 0,93880898       NA     NA
  Total    94 28,66451 1,00000000       NA     NA
           Df  SumOfSqs        R2        F Pr(>F)
  IBD       1  20363974 0,0251494 2,399234 0,0579
  Residual 93 789356084 0,9748506       NA     NA
  Total    94 809720062 1,0000000       NA     NA
           Df   SumOfSqs         R2        F Pr(>F)
  IBD       1  0,3876002 0,03353397 3,400357 0,0023
  Residual 98 11,1708326 0,96646603       NA     NA
  Total    99 11,5584328 1,00000000       NA     NA
           Df   SumOfSqs         R2        F Pr(>F)
  IBD       1  0,7353904 0,05787549 6,020221  1e-04
  Residual 98 11,9710320 0,94212451       NA     NA
  Total    99 12,7064224 1,00000000       NA     NA
           Df  SumOfSqs         R2        F Pr(>F)
  IBD       1 0,1874352 0,05112148 5,279817  2e-04
  Residual 98 3,4790314 0,94887852       NA     NA
  Total    99 3,6664666 1,00000000       NA     NA
           Df  SumOfSqs         R2       F Pr(>F)
  IBD       1  1,076608 0,03866575 3,94165  1e-04
  Residual 98 26,767374 0,96133425      NA     NA
  Total    99 27,843982 1,00000000      NA     NA
           Df  SumOfSqs          R2         F Pr(>F)
  IBD       1   2816744 0,004065626 0,4000578 0,7773
  Residual 98 690002414 0,995934366        NA     NA
  Total    99 692819163 1,000000000        NA     NA

Command error:
  The following objects are masked from ‘package:stats’:
  
      filter, lag
  
  The following objects are masked from ‘package:base’:
  
      intersect, setdiff, setequal, union
  
  Carico il pacchetto richiesto: magrittr
  
  Attaching package: ‘ggpubr’
  
  The following object is masked from ‘package:plyr’:
  
      mutate
  
  hash-2.2.6.1 provided by Decision Patterns
  
  
  Attaching package: ‘hash’
  
  The following objects are masked from ‘package:SummarizedExperiment’:
  
      values, values<-
  
  The following objects are masked from ‘package:GenomicRanges’:
  
      values, values<-
  
  The following objects are masked from ‘package:IRanges’:
  
      values, values<-
  
  The following objects are masked from ‘package:S4Vectors’:
  
      values, values<-
  
  Warning message:
  Expected 7 pieces. Missing pieces filled with `NA` in 6755 rows [1, 2, 3, 4, 5, 6, 7, 8, 9, 10, 11, 12, 13, 14, 15, 16, 17, 18, 19, 20, ...]. 
  converting counts to integer mode
  converting counts to integer mode
  converting counts to integer mode
  converting counts to integer mode
  converting counts to integer mode
  converting counts to integer mode
  There were 24 warnings (use warnings() to see them)
  Error in write.table(as.data.frame(sample_data(phy)), file = file.csv,  : 
    oggetto "file.csv" non trovato
  Calls: write.csv -> eval.parent -> eval -> eval -> write.table
  Esecuzione interrotta

Work dir:
  /home/adelaide/adelaide/Dottorato/Nextflow/met_pipeline/work/e8/5dfb7b4e4f66ddc1b12820d52bc1ee

Tip: you can try to figure out what's wrong by changing to the process work dir and showing the script file named `.command.sh`
giu-25 17:36:12.032 [main] DEBUG nextflow.Session - Session await > all process finished
giu-25 17:36:12.037 [Task monitor] DEBUG nextflow.Session - Session aborted -- Cause: Process `beta_diversity (1)` terminated with an error exit status (1)
giu-25 17:36:12.462 [main] DEBUG nextflow.Session - Session await > all barriers passed
giu-25 17:36:12.636 [main] DEBUG nextflow.trace.WorkflowStatsObserver - Workflow completed > WorkflowStats[succeededCount=0; failedCount=1; ignoredCount=0; cachedCount=0; pendingCount=0; submittedCount=0; runningCount=0; retriesCount=0; abortedCount=0; succeedDuration=0ms; failedDuration=5m 55s; cachedDuration=0ms;loadCpus=0; loadMemory=0; peakRunning=1; peakCpus=1; peakMemory=0; ]
giu-25 17:36:13.037 [main] DEBUG nextflow.CacheDB - Closing CacheDB done
giu-25 17:36:13.480 [main] DEBUG nextflow.script.ScriptRunner - > Execution complete -- Goodbye
