giu-25 17:21:40.143 [main] DEBUG nextflow.cli.Launcher - $> nextflow run test.nf
giu-25 17:21:40.362 [main] INFO  nextflow.cli.CmdRun - N E X T F L O W  ~  version 20.04.1
giu-25 17:21:40.378 [main] INFO  nextflow.cli.CmdRun - Launching `test.nf` [marvelous_raman] - revision: 1b91bb25cb
giu-25 17:21:40.420 [main] DEBUG nextflow.config.ConfigBuilder - Found config local: /home/adelaide/adelaide/Dottorato/Nextflow/met_pipeline/nextflow.config
giu-25 17:21:40.421 [main] DEBUG nextflow.config.ConfigBuilder - Parsing config file: /home/adelaide/adelaide/Dottorato/Nextflow/met_pipeline/nextflow.config
giu-25 17:21:40.467 [main] DEBUG nextflow.config.ConfigBuilder - Applying config profile: `standard`
giu-25 17:21:41.377 [main] DEBUG nextflow.Session - Session uuid: 26e7419d-994b-4e08-8235-dd4336098784
giu-25 17:21:41.378 [main] DEBUG nextflow.Session - Run name: marvelous_raman
giu-25 17:21:41.379 [main] DEBUG nextflow.Session - Executor pool size: 4
giu-25 17:21:41.514 [main] DEBUG nextflow.cli.CmdRun - 
  Version: 20.04.1 build 5335
  Created: 03-05-2020 19:37 UTC (21:37 CEST)
  System: Linux 4.19.91-1-MANJARO
  Runtime: Groovy 2.5.8 on OpenJDK 64-Bit Server VM 1.8.0_152-release-1056-b12
  Encoding: UTF-8 (UTF-8)
  Process: 1384@adelaide-pc [127.0.1.1]
  CPUs: 4 - Mem: 3.7 GB (985.6 MB) - Swap: 8.2 GB (5.1 GB)
giu-25 17:21:41.558 [main] DEBUG nextflow.Session - Work-dir: /home/adelaide/adelaide/Dottorato/Nextflow/met_pipeline/work [ext2/ext3]
giu-25 17:21:41.609 [main] DEBUG nextflow.Session - Observer factory: TowerFactory
giu-25 17:21:41.613 [main] DEBUG nextflow.Session - Observer factory: DefaultObserverFactory
giu-25 17:21:41.996 [main] DEBUG nextflow.Session - Session start invoked
giu-25 17:21:42.344 [main] DEBUG nextflow.script.ScriptRunner - > Launching execution
giu-25 17:21:42.361 [main] DEBUG nextflow.Session - Workflow process names [dsl1]: beta_diversity
giu-25 17:21:42.588 [main] WARN  nextflow.extension.IntoOp - The `into` operator should be used to connect two or more target channels -- consider to replace it with `.set { ch_table_qza_beta }`
giu-25 17:21:42.599 [main] WARN  nextflow.extension.IntoOp - The `into` operator should be used to connect two or more target channels -- consider to replace it with `.set { ch_classification_beta }`
giu-25 17:21:42.606 [main] WARN  nextflow.extension.IntoOp - The `into` operator should be used to connect two or more target channels -- consider to replace it with `.set { ch_rooted_beta }`
giu-25 17:21:42.721 [main] DEBUG nextflow.Session - Session aborted -- Cause: Unknown variable 'file'
giu-25 17:21:42.757 [main] ERROR nextflow.cli.Launcher - @unknown
groovy.lang.MissingPropertyException: Unknown variable 'file'
	at sun.reflect.NativeConstructorAccessorImpl.newInstance0(Native Method)
	at sun.reflect.NativeConstructorAccessorImpl.newInstance(NativeConstructorAccessorImpl.java:62)
	at sun.reflect.DelegatingConstructorAccessorImpl.newInstance(DelegatingConstructorAccessorImpl.java:45)
	at java.lang.reflect.Constructor.newInstance(Constructor.java:423)
	at org.codehaus.groovy.reflection.CachedConstructor.invoke(CachedConstructor.java:80)
	at org.codehaus.groovy.reflection.CachedConstructor.doConstructorInvoke(CachedConstructor.java:74)
	at org.codehaus.groovy.runtime.callsite.ConstructorSite$ConstructorSiteNoUnwrap.callConstructor(ConstructorSite.java:84)
	at org.codehaus.groovy.runtime.callsite.AbstractCallSite.callConstructor(AbstractCallSite.java:265)
	at nextflow.script.ProcessConfig.getProperty(ProcessConfig.groovy:279)
	at org.codehaus.groovy.runtime.InvokerHelper.getProperty(InvokerHelper.java:190)
	at groovy.lang.Closure.getPropertyTryThese(Closure.java:313)
	at groovy.lang.Closure.getPropertyDelegateFirst(Closure.java:303)
	at groovy.lang.Closure.getProperty(Closure.java:288)
	at org.codehaus.groovy.runtime.callsite.PogoGetPropertySite.getProperty(PogoGetPropertySite.java:49)
	at org.codehaus.groovy.runtime.callsite.AbstractCallSite.callGroovyObjectGetProperty(AbstractCallSite.java:309)
	at Script_fa071fd0$_runScript_closure10.doCall(Script_fa071fd0:43)
	at Script_fa071fd0$_runScript_closure10.doCall(Script_fa071fd0)
	at sun.reflect.NativeMethodAccessorImpl.invoke0(Native Method)
	at sun.reflect.NativeMethodAccessorImpl.invoke(NativeMethodAccessorImpl.java:62)
	at sun.reflect.DelegatingMethodAccessorImpl.invoke(DelegatingMethodAccessorImpl.java:43)
	at java.lang.reflect.Method.invoke(Method.java:498)
	at org.codehaus.groovy.reflection.CachedMethod.invoke(CachedMethod.java:101)
	at groovy.lang.MetaMethod.doMethodInvoke(MetaMethod.java:323)
	at org.codehaus.groovy.runtime.metaclass.ClosureMetaClass.invokeMethod(ClosureMetaClass.java:263)
	at groovy.lang.MetaClassImpl.invokeMethod(MetaClassImpl.java:1041)
	at groovy.lang.Closure.call(Closure.java:405)
	at groovy.lang.Closure.call(Closure.java:399)
	at nextflow.script.ProcessFactory.createProcessor(ProcessFactory.groovy:110)
	at nextflow.script.ProcessFactory$createProcessor.call(Unknown Source)
	at org.codehaus.groovy.runtime.callsite.CallSiteArray.defaultCall(CallSiteArray.java:47)
	at org.codehaus.groovy.runtime.callsite.AbstractCallSite.call(AbstractCallSite.java:115)
	at org.codehaus.groovy.runtime.callsite.AbstractCallSite.call(AbstractCallSite.java:135)
	at nextflow.script.BaseScript.process(BaseScript.groovy:104)
	at sun.reflect.NativeMethodAccessorImpl.invoke0(Native Method)
	at sun.reflect.NativeMethodAccessorImpl.invoke(NativeMethodAccessorImpl.java:62)
	at sun.reflect.DelegatingMethodAccessorImpl.invoke(DelegatingMethodAccessorImpl.java:43)
	at java.lang.reflect.Method.invoke(Method.java:498)
	at org.codehaus.groovy.runtime.callsite.PlainObjectMetaMethodSite.doInvoke(PlainObjectMetaMethodSite.java:43)
	at org.codehaus.groovy.runtime.callsite.PogoMetaMethodSite$PogoCachedMethodSiteNoUnwrapNoCoerce.invoke(PogoMetaMethodSite.java:190)
	at org.codehaus.groovy.runtime.callsite.PogoMetaMethodSite.callCurrent(PogoMetaMethodSite.java:58)
	at org.codehaus.groovy.runtime.callsite.CallSiteArray.defaultCallCurrent(CallSiteArray.java:51)
	at org.codehaus.groovy.runtime.callsite.AbstractCallSite.callCurrent(AbstractCallSite.java:156)
	at org.codehaus.groovy.runtime.callsite.AbstractCallSite.callCurrent(AbstractCallSite.java:176)
	at Script_fa071fd0.runScript(Script_fa071fd0:34)
	at nextflow.script.BaseScript.runDsl1(BaseScript.groovy:153)
	at nextflow.script.BaseScript.run(BaseScript.groovy:189)
	at nextflow.script.ScriptParser.runScript(ScriptParser.groovy:225)
	at nextflow.script.ScriptRunner.run(ScriptRunner.groovy:218)
	at nextflow.script.ScriptRunner.execute(ScriptRunner.groovy:126)
	at nextflow.cli.CmdRun.run(CmdRun.groovy:273)
	at nextflow.cli.Launcher.run(Launcher.groovy:460)
	at nextflow.cli.Launcher.main(Launcher.groovy:642)
