Carico il pacchetto richiesto: permute
Carico il pacchetto richiesto: lattice
This is vegan 2.5-6

Attaching package: ‘dplyr’

The following objects are masked from ‘package:stats’:

    filter, lag

The following objects are masked from ‘package:base’:

    intersect, setdiff, setequal, union

Errore: C stack usage  7970404 is too close to the limit
Esecuzione interrotta
