         Df  SumOfSqs         R2        F Pr(>F)
IBD       1  1.882981 0.05140636 4.985681  1e-04
Residual 92 34.746355 0.94859364       NA     NA
Total    93 36.629336 1.00000000       NA     NA
         Df  SumOfSqs         R2        F Pr(>F)
IBD       1  1.645968 0.06462668 6.356451  1e-04
Residual 92 23.822892 0.93537332       NA     NA
Total    93 25.468860 1.00000000       NA     NA
         Df  SumOfSqs         R2        F Pr(>F)
IBD       1 0.6041289 0.06132609 6.010607  1e-04
Residual 92 9.2469627 0.93867391       NA     NA
Total    93 9.8510916 1.00000000       NA     NA
         Df  SumOfSqs         R2        F Pr(>F)
IBD       1  1.329696 0.03214605 3.055665  1e-04
Residual 92 40.034501 0.96785395       NA     NA
Total    93 41.364197 1.00000000       NA     NA
         Df SumOfSqs         R2        F Pr(>F)
IBD       1  1912330 0.04646881 4.483472  1e-04
Residual 92 39240651 0.95353119       NA     NA
Total    93 41152980 1.00000000       NA     NA
         Df  SumOfSqs        R2        F Pr(>F)
IBD       1  1,365499 0,0373416 3,801428  1e-04
Residual 98 35,202276 0,9626584       NA     NA
Total    99 36,567775 1,0000000       NA     NA
         Df  SumOfSqs        R2        F Pr(>F)
IBD       1  0,910434 0,0375423 3,822656  1e-04
Residual 98 23,340453 0,9624577       NA     NA
Total    99 24,250887 1,0000000       NA     NA
         Df SumOfSqs        R2        F Pr(>F)
IBD       1 0,437018 0,0469691 4,829825  1e-04
Residual 98 8,867353 0,9530309       NA     NA
Total    99 9,304371 1,0000000       NA     NA
         Df  SumOfSqs         R2       F Pr(>F)
IBD       1  1,033333 0,02419382 2,42978  1e-04
Residual 98 41,677277 0,97580618      NA     NA
Total    99 42,710609 1,00000000      NA     NA
         Df SumOfSqs         R2        F Pr(>F)
IBD       1  1327954 0,02605831 2,622041  2e-04
Residual 98 49632918 0,97394169       NA     NA
Total    99 50960872 1,00000000       NA     NA
         Df  SumOfSqs        R2        F Pr(>F)
IBD       1  1,838931 0,0806055 8,153531  1e-04
Residual 93 20,975033 0,9193945       NA     NA
Total    94 22,813964 1,0000000       NA     NA
         Df  SumOfSqs         R2        F Pr(>F)
IBD       1  1,811188 0,09650204 9,933271  1e-04
Residual 93 16,957201 0,90349796       NA     NA
Total    94 18,768388 1,00000000       NA     NA
         Df  SumOfSqs         R2        F Pr(>F)
IBD       1 0,4433857 0,07573229 7,620198  1e-04
Residual 93 5,4112602 0,92426771       NA     NA
Total    94 5,8546460 1,00000000       NA     NA
         Df  SumOfSqs         R2        F Pr(>F)
IBD       1  1,815298 0,05194493 5,095568  1e-04
Residual 93 33,131291 0,94805507       NA     NA
Total    94 34,946590 1,00000000       NA     NA
         Df  SumOfSqs         R2        F Pr(>F)
IBD       1  17192037 0,05266635 5,170269  7e-04
Residual 93 309241025 0,94733365       NA     NA
Total    94 326433062 1,00000000       NA     NA
         Df   SumOfSqs         R2        F Pr(>F)
IBD       1  0,9435726 0,04603564 4,729205  1e-04
Residual 98 19,5529959 0,95396436       NA     NA
Total    99 20,4965686 1,00000000       NA     NA
         Df   SumOfSqs         R2        F Pr(>F)
IBD       1  0,7736676 0,04712688 4,846851  1e-04
Residual 98 15,6430293 0,95287312       NA     NA
Total    99 16,4166969 1,00000000       NA     NA
