Carico il pacchetto richiesto: permute
Carico il pacchetto richiesto: lattice
This is vegan 2.5-6
Error in validObject(.Object) : invalid class “phyloseq” object: 
 Component sample names do not match.
 Try sample_names()
Calls: qza_to_phyloseq ... do.call -> new -> initialize -> initialize -> validObject
Esecuzione interrotta
