ARGOMENTO '/home/adelaide/adelaide/Dottorato/Nextflow/met_pipeline/bin/beta_diversity.R' __ignorato__

ARGOMENTO 'dada2_gastrodata_table.qza' __ignorato__

ARGOMENTO 'mapping.txt' __ignorato__

ARGOMENTO 'rooted_tree.qza' __ignorato__

ARGOMENTO 'taxonomy_classification_data_sklearn.qza' __ignorato__

ARGOMENTO 'IBD' __ignorato__

