Carico il pacchetto richiesto: permute
Carico il pacchetto richiesto: lattice
This is vegan 2.5-6

Attaching package: ‘dplyr’

The following objects are masked from ‘package:stats’:

    filter, lag

The following objects are masked from ‘package:base’:

    intersect, setdiff, setequal, union

Error in file(filename, "r", encoding = encoding) : 
  non posso aprire questa connessione
Calls: source -> file
Inoltre: Warning message:
In file(filename, "r", encoding = encoding) :
  cannot open file 'beta_diversity.R': File o directory non esistente
Esecuzione interrotta
