         Df  SumOfSqs         R2        F Pr(>F)
IBD       1  1.882981 0.05140636 4.985681  1e-04
Residual 92 34.746355 0.94859364       NA     NA
Total    93 36.629336 1.00000000       NA     NA
         Df  SumOfSqs         R2        F Pr(>F)
IBD       1  1.645968 0.06462668 6.356451  1e-04
Residual 92 23.822892 0.93537332       NA     NA
Total    93 25.468860 1.00000000       NA     NA
         Df  SumOfSqs         R2        F Pr(>F)
IBD       1 0.6041289 0.06132609 6.010607  1e-04
Residual 92 9.2469627 0.93867391       NA     NA
Total    93 9.8510916 1.00000000       NA     NA
         Df  SumOfSqs         R2        F Pr(>F)
IBD       1  1.329696 0.03214605 3.055665  1e-04
Residual 92 40.034501 0.96785395       NA     NA
Total    93 41.364197 1.00000000       NA     NA
         Df SumOfSqs         R2        F Pr(>F)
IBD       1  1912330 0.04646881 4.483472  1e-04
Residual 92 39240651 0.95353119       NA     NA
Total    93 41152980 1.00000000       NA     NA
         Df  SumOfSqs        R2        F Pr(>F)
IBD       1  1,365499 0,0373416 3,801428  1e-04
Residual 98 35,202276 0,9626584       NA     NA
Total    99 36,567775 1,0000000       NA     NA
         Df  SumOfSqs        R2        F Pr(>F)
IBD       1  0,910434 0,0375423 3,822656  1e-04
Residual 98 23,340453 0,9624577       NA     NA
Total    99 24,250887 1,0000000       NA     NA
         Df SumOfSqs        R2        F Pr(>F)
IBD       1 0,437018 0,0469691 4,829825  1e-04
Residual 98 8,867353 0,9530309       NA     NA
Total    99 9,304371 1,0000000       NA     NA
         Df  SumOfSqs         R2       F Pr(>F)
IBD       1  1,033333 0,02419382 2,42978  1e-04
Residual 98 41,677277 0,97580618      NA     NA
Total    99 42,710609 1,00000000      NA     NA
         Df SumOfSqs         R2        F Pr(>F)
IBD       1  1327954 0,02605831 2,622041  2e-04
Residual 98 49632918 0,97394169       NA     NA
Total    99 50960872 1,00000000       NA     NA
         Df  SumOfSqs        R2        F Pr(>F)
IBD       1  1,838931 0,0806055 8,153531  1e-04
Residual 93 20,975033 0,9193945       NA     NA
Total    94 22,813964 1,0000000       NA     NA
         Df  SumOfSqs         R2        F Pr(>F)
IBD       1  1,811188 0,09650204 9,933271  1e-04
Residual 93 16,957201 0,90349796       NA     NA
Total    94 18,768388 1,00000000       NA     NA
         Df  SumOfSqs         R2        F Pr(>F)
IBD       1 0,4433857 0,07573229 7,620198  1e-04
Residual 93 5,4112602 0,92426771       NA     NA
Total    94 5,8546460 1,00000000       NA     NA
         Df  SumOfSqs         R2        F Pr(>F)
IBD       1  1,815298 0,05194493 5,095568  1e-04
Residual 93 33,131291 0,94805507       NA     NA
Total    94 34,946590 1,00000000       NA     NA
         Df  SumOfSqs         R2        F Pr(>F)
IBD       1  17192037 0,05266635 5,170269  8e-04
Residual 93 309241025 0,94733365       NA     NA
Total    94 326433062 1,00000000       NA     NA
         Df   SumOfSqs         R2        F Pr(>F)
IBD       1  0,9435726 0,04603564 4,729205  1e-04
Residual 98 19,5529959 0,95396436       NA     NA
Total    99 20,4965686 1,00000000       NA     NA
         Df   SumOfSqs         R2        F Pr(>F)
IBD       1  0,7736676 0,04712688 4,846851  1e-04
Residual 98 15,6430293 0,95287312       NA     NA
Total    99 16,4166969 1,00000000       NA     NA
         Df  SumOfSqs         R2        F Pr(>F)
IBD       1 0,2644739 0,05378165 5,570175  1e-04
Residual 98 4,6530760 0,94621835       NA     NA
Total    99 4,9175499 1,00000000       NA     NA
         Df SumOfSqs         R2        F Pr(>F)
IBD       1  1,08418 0,03187281 3,226369  1e-04
Residual 98 32,93166 0,96812719       NA     NA
Total    99 34,01584 1,00000000       NA     NA
         Df  SumOfSqs         R2        F Pr(>F)
IBD       1   9393301 0,03432132 3,483031 0,0103
Residual 98 264293777 0,96567868       NA     NA
Total    99 273687078 1,00000000       NA     NA
         Df   SumOfSqs         R2        F Pr(>F)
IBD       1  0,9364203 0,06383753 6,341731  1e-04
Residual 93 13,7323852 0,93616247       NA     NA
Total    94 14,6688056 1,00000000       NA     NA
         Df  SumOfSqs       R2        F Pr(>F)
IBD       1  1,530476 0,108593 11,32945  1e-04
Residual 93 12,563216 0,891407       NA     NA
Total    94 14,093692 1,000000       NA     NA
         Df  SumOfSqs         R2       F Pr(>F)
IBD       1 0,3982002 0,08117103 8,21579  1e-04
Residual 93 4,5074940 0,91882897      NA     NA
Total    94 4,9056942 1,00000000      NA     NA
         Df SumOfSqs         R2        F Pr(>F)
IBD       1  1,75401 0,06119102 6,061686  1e-04
Residual 93 26,91050 0,93880898       NA     NA
Total    94 28,66451 1,00000000       NA     NA
         Df  SumOfSqs        R2        F Pr(>F)
IBD       1  20363974 0,0251494 2,399234 0,0629
Residual 93 789356084 0,9748506       NA     NA
Total    94 809720062 1,0000000       NA     NA
         Df   SumOfSqs         R2        F Pr(>F)
IBD       1  0,3876002 0,03353397 3,400357 0,0038
Residual 98 11,1708326 0,96646603       NA     NA
Total    99 11,5584328 1,00000000       NA     NA
         Df   SumOfSqs         R2        F Pr(>F)
IBD       1  0,7353904 0,05787549 6,020221  1e-04
Residual 98 11,9710320 0,94212451       NA     NA
Total    99 12,7064224 1,00000000       NA     NA
         Df  SumOfSqs         R2        F Pr(>F)
IBD       1 0,1874352 0,05112148 5,279817  3e-04
Residual 98 3,4790314 0,94887852       NA     NA
Total    99 3,6664666 1,00000000       NA     NA
         Df  SumOfSqs         R2       F Pr(>F)
IBD       1  1,076608 0,03866575 3,94165  1e-04
Residual 98 26,767374 0,96133425      NA     NA
Total    99 27,843982 1,00000000      NA     NA
         Df  SumOfSqs          R2         F Pr(>F)
IBD       1   2816744 0,004065626 0,4000578 0,7777
Residual 98 690002414 0,995934366        NA     NA
Total    99 692819163 1,000000000        NA     NA
